%%MatrixMarket matrix array real general
487 1
 148.5829986322406
 157.1344644640371
 146.8991435353366
 180.0055051718994
 153.2959078282934
 168.3918959511356
 134.0002951719095
 166.5144845286841
 180.4240212944643
 178.1158636011537
 145.5230905385495
 188.1808569600242
 191.6436433431394
 177.6576762578726
 179.0266918753557
 159.8587813584656
 141.21838967184
 176.7503739287116
 157.4301692658707
 188.9120974354317
 179.5148772574105
 149.0208048576887
 179.3480102918202
 183.9224547101126
 158.5937108374128
 153.9397032175121
 160.2422129161807
 190.3174153948947
 177.7312058302293
 157.6137530078435
 150.4487748139942
 161.7672301750414
 140.0377622616586
 168.6576485492452
 150.0017076856037
 166.734081987737
 154.6074826118728
 197.1809820472106
 187.982970973435
 155.3370469855952
 144.3521612976058
 140.1259022266159
 159.6674896098325
 167.7501840556361
 147.5958543459478
 156.5268737705498
 155.3556326265923
 163.4579364489365
 165.3641116971603
 160.3199914253801
 144.9966061470809
 146.6622849395987
 172.6397237151677
 172.4938599545832
 164.5785682425585
 155.7930765586503
 148.8775697979662
 163.7214614515833
 153.20953993635
 165.701766002865
 163.820985661655
 166.9149252171937
 157.084518986438
 164.6094042530408
 142.5393536902641
 155.5518052401364
 176.9560975251369
 144.3486097804452
 134.1323199717932
 146.8661149345328
 170.1899618949375
 160.2088654029962
 158.9477224073775
 182.2949936844644
 170.0862293775522
 184.9846167061663
 164.0017030084646
 157.0269533680067
 159.2247937080289
 153.2679505473972
 184.9738047494294
 180.1697523453688
 140.4347914017176
 142.59965586805
 156.8797629955803
 172.3136900544336
 177.4018977408444
 161.4405249291337
 146.048245532609
 163.3273885702978
 153.5268989691348
 151.7459884198347
 187.9035089389534
 179.0705480858768
 141.0434783694425
 152.1342766586361
 161.5963692164835
 134.3594739345114
 146.4858452763536
 145.6055881359522
 145.4562525013358
 158.5662883831449
 162.448396387681
 172.8393756714203
 154.1704252689685
 156.5377434974464
 145.0566829804738
 158.8904361523917
 155.5315602416563
 155.7075372699108
 154.1815931786452
 165.3688772501175
 189.0446522050798
 150.6424344623939
 143.7349958594459
 135.9780652458909
 168.5787478032465
 184.5527863789731
 167.7195929721991
 165.2429051533844
 170.7486777532651
 161.1926628819145
 161.3842381519738
 150.7428045552685
 135.5533108045752
 136.8464842175325
 166.2077344272689
 163.4961607396972
 146.9985090737994
 160.7133883935356
 152.4996565388591
 167.7988557560752
 149.6473202670445
 167.3843922349751
 147.9261063046791
 175.8121113368439
 161.7578067318748
 157.8122492156118
 154.183242398613
 174.6202723092405
 138.4858312780878
 132.638543464118
 150.3810960137249
 173.4263110121448
 144.668269734147
 166.5213056745062
 120.279678054847
 157.0927972066825
 155.8086979996559
 159.3878264451899
 170.946612500128
 179.1615706600435
 139.9579936107842
 172.7016924771039
 156.2118777321256
 162.3838135560499
 155.0538345003594
 160.9805637589529
 151.2134681030514
 163.405425793379
 150.6987975582521
 187.4411802323891
 163.7887850292941
 158.5937960905138
 163.8985963327205
 161.7015514367346
 128.6582737086325
 171.1280155548484
 175.0170168486876
 145.2000027290716
 176.6815806414448
 147.9208893774885
 157.6039743437331
 164.6834580056428
 167.4650148313508
 141.2660467804365
 138.1090369472144
 166.7782411171363
 165.3076443013002
 165.1114552043479
 167.0153604967825
 143.4485351262533
 172.4069151314148
 161.3899231704212
 150.6412297205808
 168.4405822100365
 169.5951656134401
 167.124532838342
 140.4814892731684
 185.2670157755146
 163.8537779450976
 141.3484611330969
 165.2755600725072
 175.9118545472786
 163.1300191418824
 164.5474477797635
 157.9462829475657
 156.2126554165704
 175.7097912038444
 156.3111648290902
 172.6067766891239
 153.5364818076979
 153.0769265662479
 154.2207216916515
 153.1338364980626
 170.92582121244
 143.4483487001805
 146.7105869183562
 144.6877237153351
 145.8386768623831
 165.3315086761683
 154.4789434036201
 172.815386544054
 143.36101538867
 147.939107454271
 145.4439084486168
 165.1006268910987
 162.2203952489113
 150.4152634659826
 146.802847932958
 147.1979491093551
 153.5319478803331
 166.7446800973075
 176.5953431476604
 189.4891593633031
 151.8494875487547
 173.8308271682972
 145.2719836622678
 170.0452670692276
 134.1478220974887
 164.4905113944957
 162.1595365809108
 154.157033709329
 176.7522302784018
 174.9206285403261
 154.2261771308972
 174.4160512137781
 162.9006143555035
 140.6503503307229
 163.1899992153903
 130.7958062396235
 152.2608078900332
 167.3998292972165
 180.4728465203137
 198.1397372798648
 175.7129106929245
 160.1214575592991
 137.4743506744849
 167.0371056933957
 138.3185495153626
 177.5371565364148
 141.0556794164743
 147.8420860724052
 175.4749004088068
 163.2910745872113
 180.7855726798023
 149.5848353835389
 158.8904627767736
 146.6856682207636
 175.3454475397915
 166.9129591877643
 151.7764888091095
 160.8275522047116
 164.2735420947868
 173.9635752075932
 171.7490504972819
 159.89110074038
 147.5087150689267
 167.9717236341048
 159.2579490985903
 159.9325308816717
 184.3394294809402
 149.7584860437722
 165.9404722339767
 157.9485327051615
 155.8639598197572
 172.108137701605
 153.7521134716831
 162.8269775355911
 148.8550268997708
 174.0060942409534
 127.7465183408748
 170.5009906216407
 140.2644521000155
 151.0214080574858
 167.5902779885369
 169.6250108507117
 185.2030112266564
 165.3867760855746
 162.7485602522877
 149.6469601358344
 145.438936545298
 194.6588690476813
 167.5108952079098
 175.6185597136118
 156.110572132844
 171.6055345349638
 144.1038698439129
 156.4044836622978
 168.6853952116564
 166.3245279290263
 165.4664202483215
 199.8726690128104
 171.8709360006804
 152.7549381498316
 149.5680574560427
 163.1845499045129
 189.6081282928972
 160.6530577519845
 145.7549639786682
 153.7408860780853
 167.8935442417346
 166.6310960989947
 165.0146093828606
 169.3766696481043
 166.3903688815614
 192.8637335245441
 133.5415137374607
 159.8691129012207
 162.0662289229829
 181.0845516438308
 170.6899244772972
 144.7787849983575
 149.127119583486
 153.9463126290846
 139.6590463674926
 185.0403115131003
 175.8620053502943
 143.0295318711902
 163.9269028200006
 154.9946434460291
 183.400804531168
 128.0329353728593
 129.1950727414104
 166.4477253587976
 141.8178939677342
 164.604512519521
 156.8675410660265
 176.1175814526857
 184.7969423049574
 149.243414047404
 154.7463943944392
 176.6326597835232
 138.6597857207875
 147.914795380163
 150.9795610147865
 137.6114699391515
 145.7176810510831
 141.4814000353704
 149.0185808176196
 147.570142997302
 166.2388959619502
 173.3258006863615
 184.45573691955
 157.4573768032332
 184.4825278773267
 146.4924125507551
 155.9138928484899
 149.6641188198271
 172.2241462881144
 165.3476706024857
 155.5126084576416
 185.6022482298418
 148.8047114688605
 159.0753131109333
 142.7979929416358
 185.7639605420175
 146.9351208496379
 148.3388935795323
 164.2638288608246
 167.0915173511623
 173.5188853780316
 158.5837899775454
 201.2090530970709
 167.0967354720772
 153.8142209830573
 140.0006087170563
 152.9501667836118
 151.1534539407309
 150.7562076702805
 140.3178102073004
 181.0885648679357
 132.117294781303
 168.068790416047
 163.7649124443928
 185.3229685106855
 142.4495955438097
 157.0833017179007
 168.7458737536372
 129.3257559488804
 167.0288259635835
 163.630188461583
 164.5646807569454
 161.1368302749122
 172.8637583929232
 151.237291022369
 137.9721772590511
 147.5880286314316
 150.2121427902238
 184.7411990533614
 133.1617810806202
 165.1605002279287
 189.0285576782146
 173.9516934074989
 168.917419093762
 118.6537343271326
 144.1035647102929
 160.4955036872072
 180.5816158136201
 127.828964032964
 152.545863245112
 131.4339291263974
 141.5652678793728
 163.3524735006042
 149.8035706721634
 130.3722568389602
 154.7291642328525
 176.0279522503439
 159.4055486731066
 165.0836145534361
 162.7014926631518
 151.7491805313265
 139.7470858472741
 145.04589573845
 150.7676210026426
 141.380910198207
 170.2641429652722
 153.3462354347276
 162.6349127302744
 190.9983345561747
 170.1694045896938
 132.8685811060154
 167.8596624121205
 168.1444514900941
 126.1059808977702
 164.8521377114914
 167.3557178037748
 139.365515909514
 161.7755234668781
 170.8536080524131
 159.9734200043103
 181.4713609545984
 176.1525514285311
 148.5145517428556
 134.4282216465925
 139.5969910256985
 135.2688079560282
 146.4359486998435
 160.2152841250438
 173.247276477867
 146.6859132055019
 170.3719614658858
 163.4663849995917
 164.9271841137368
 167.229111505196
 159.8215642695121
 178.9447477065267
 171.4678366562834
 142.3771925373912
 165.6871670468981
 175.5156315536405
 146.740352776971
 188.1338670558736
 165.2594402905253
 161.369851416499
 143.8944352751895
 149.5726170157386
 168.8494280315934
 183.7052655598465
 174.9157681639436
 165.1230073195743
 178.3393030619146
 167.5455656460962
 146.2673009307454
 146.812108586835
 172.9958800644153
 147.7454518341754
 129.2822949417126
 168.8450129268531
 143.8387996091044
 158.8100203061381
 149.68112555818
 146.9262109336011
 154.0829863839671
 142.2856322820874
 149.8765334271292
 161.7817716209948
