%%MatrixMarket matrix coordinate real general
% Generated 10-Jan-2013
625 625 3025
1 1  2704
2 1 -675.9999999999999
26 1 -675.9999999999999
1 2 -675.9999999999999
2 2  2704
3 2 -675.9999999999999
27 2 -675.9999999999999
2 3 -675.9999999999999
3 3  2704
4 3 -675.9999999999999
28 3 -675.9999999999999
3 4 -675.9999999999999
4 4  2704
5 4 -675.9999999999999
29 4 -675.9999999999999
4 5 -675.9999999999999
5 5  2704
6 5 -675.9999999999999
30 5 -675.9999999999999
5 6 -675.9999999999999
6 6  2704
7 6 -675.9999999999999
31 6 -675.9999999999999
6 7 -675.9999999999999
7 7  2704
8 7 -675.9999999999999
32 7 -675.9999999999999
7 8 -675.9999999999999
8 8  2704
9 8 -675.9999999999999
33 8 -675.9999999999999
8 9 -675.9999999999999
9 9  2704
10 9 -675.9999999999999
34 9 -675.9999999999999
9 10 -675.9999999999999
10 10  2704
11 10 -675.9999999999999
35 10 -675.9999999999999
10 11 -675.9999999999999
11 11  2704
12 11 -675.9999999999999
36 11 -675.9999999999999
11 12 -675.9999999999999
12 12  2704
13 12 -675.9999999999999
37 12 -675.9999999999999
12 13 -675.9999999999999
13 13  2704
14 13 -675.9999999999999
38 13 -675.9999999999999
13 14 -675.9999999999999
14 14  2704
15 14 -675.9999999999999
39 14 -675.9999999999999
14 15 -675.9999999999999
15 15  2704
16 15 -675.9999999999999
40 15 -675.9999999999999
15 16 -675.9999999999999
16 16  2704
17 16 -675.9999999999999
41 16 -675.9999999999999
16 17 -675.9999999999999
17 17  2704
18 17 -675.9999999999999
42 17 -675.9999999999999
17 18 -675.9999999999999
18 18  2704
19 18 -675.9999999999999
43 18 -675.9999999999999
18 19 -675.9999999999999
19 19  2704
20 19 -675.9999999999999
44 19 -675.9999999999999
19 20 -675.9999999999999
20 20  2704
21 20 -675.9999999999999
45 20 -675.9999999999999
20 21 -675.9999999999999
21 21  2704
22 21 -675.9999999999999
46 21 -675.9999999999999
21 22 -675.9999999999999
22 22  2704
23 22 -675.9999999999999
47 22 -675.9999999999999
22 23 -675.9999999999999
23 23  2704
24 23 -675.9999999999999
48 23 -675.9999999999999
23 24 -675.9999999999999
24 24  2704
25 24 -675.9999999999999
49 24 -675.9999999999999
24 25 -675.9999999999999
25 25  2704
50 25 -675.9999999999999
1 26 -675.9999999999999
26 26  2704
27 26 -675.9999999999999
51 26 -675.9999999999999
2 27 -675.9999999999999
26 27 -675.9999999999999
27 27  2704
28 27 -675.9999999999999
52 27 -675.9999999999999
3 28 -675.9999999999999
27 28 -675.9999999999999
28 28  2704
29 28 -675.9999999999999
53 28 -675.9999999999999
4 29 -675.9999999999999
28 29 -675.9999999999999
29 29  2704
30 29 -675.9999999999999
54 29 -675.9999999999999
5 30 -675.9999999999999
29 30 -675.9999999999999
30 30  2704
31 30 -675.9999999999999
55 30 -675.9999999999999
6 31 -675.9999999999999
30 31 -675.9999999999999
31 31  2704
32 31 -675.9999999999999
56 31 -675.9999999999999
7 32 -675.9999999999999
31 32 -675.9999999999999
32 32  2704
33 32 -675.9999999999999
57 32 -675.9999999999999
8 33 -675.9999999999999
32 33 -675.9999999999999
33 33  2704
34 33 -675.9999999999999
58 33 -675.9999999999999
9 34 -675.9999999999999
33 34 -675.9999999999999
34 34  2704
35 34 -675.9999999999999
59 34 -675.9999999999999
10 35 -675.9999999999999
34 35 -675.9999999999999
35 35  2704
36 35 -675.9999999999999
60 35 -675.9999999999999
11 36 -675.9999999999999
35 36 -675.9999999999999
36 36  2704
37 36 -675.9999999999999
61 36 -675.9999999999999
12 37 -675.9999999999999
36 37 -675.9999999999999
37 37  2704
38 37 -675.9999999999999
62 37 -675.9999999999999
13 38 -675.9999999999999
37 38 -675.9999999999999
38 38  2704
39 38 -675.9999999999999
63 38 -675.9999999999999
14 39 -675.9999999999999
38 39 -675.9999999999999
39 39  2704
40 39 -675.9999999999999
64 39 -675.9999999999999
15 40 -675.9999999999999
39 40 -675.9999999999999
40 40  2704
41 40 -675.9999999999999
65 40 -675.9999999999999
16 41 -675.9999999999999
40 41 -675.9999999999999
41 41  2704
42 41 -675.9999999999999
66 41 -675.9999999999999
17 42 -675.9999999999999
41 42 -675.9999999999999
42 42  2704
43 42 -675.9999999999999
67 42 -675.9999999999999
18 43 -675.9999999999999
42 43 -675.9999999999999
43 43  2704
44 43 -675.9999999999999
68 43 -675.9999999999999
19 44 -675.9999999999999
43 44 -675.9999999999999
44 44  2704
45 44 -675.9999999999999
69 44 -675.9999999999999
20 45 -675.9999999999999
44 45 -675.9999999999999
45 45  2704
46 45 -675.9999999999999
70 45 -675.9999999999999
21 46 -675.9999999999999
45 46 -675.9999999999999
46 46  2704
47 46 -675.9999999999999
71 46 -675.9999999999999
22 47 -675.9999999999999
46 47 -675.9999999999999
47 47  2704
48 47 -675.9999999999999
72 47 -675.9999999999999
23 48 -675.9999999999999
47 48 -675.9999999999999
48 48  2704
49 48 -675.9999999999999
73 48 -675.9999999999999
24 49 -675.9999999999999
48 49 -675.9999999999999
49 49  2704
50 49 -675.9999999999999
74 49 -675.9999999999999
25 50 -675.9999999999999
49 50 -675.9999999999999
50 50  2704
75 50 -675.9999999999999
26 51 -675.9999999999999
51 51  2704
52 51 -675.9999999999999
76 51 -675.9999999999999
27 52 -675.9999999999999
51 52 -675.9999999999999
52 52  2704
53 52 -675.9999999999999
77 52 -675.9999999999999
28 53 -675.9999999999999
52 53 -675.9999999999999
53 53  2704
54 53 -675.9999999999999
78 53 -675.9999999999999
29 54 -675.9999999999999
53 54 -675.9999999999999
54 54  2704
55 54 -675.9999999999999
79 54 -675.9999999999999
30 55 -675.9999999999999
54 55 -675.9999999999999
55 55  2704
56 55 -675.9999999999999
80 55 -675.9999999999999
31 56 -675.9999999999999
55 56 -675.9999999999999
56 56  2704
57 56 -675.9999999999999
81 56 -675.9999999999999
32 57 -675.9999999999999
56 57 -675.9999999999999
57 57  2704
58 57 -675.9999999999999
82 57 -675.9999999999999
33 58 -675.9999999999999
57 58 -675.9999999999999
58 58  2704
59 58 -675.9999999999999
83 58 -675.9999999999999
34 59 -675.9999999999999
58 59 -675.9999999999999
59 59  2704
60 59 -675.9999999999999
84 59 -675.9999999999999
35 60 -675.9999999999999
59 60 -675.9999999999999
60 60  2704
61 60 -675.9999999999999
85 60 -675.9999999999999
36 61 -675.9999999999999
60 61 -675.9999999999999
61 61  2704
62 61 -675.9999999999999
86 61 -675.9999999999999
37 62 -675.9999999999999
61 62 -675.9999999999999
62 62  2704
63 62 -675.9999999999999
87 62 -675.9999999999999
38 63 -675.9999999999999
62 63 -675.9999999999999
63 63  2704
64 63 -675.9999999999999
88 63 -675.9999999999999
39 64 -675.9999999999999
63 64 -675.9999999999999
64 64  2704
65 64 -675.9999999999999
89 64 -675.9999999999999
40 65 -675.9999999999999
64 65 -675.9999999999999
65 65  2704
66 65 -675.9999999999999
90 65 -675.9999999999999
41 66 -675.9999999999999
65 66 -675.9999999999999
66 66  2704
67 66 -675.9999999999999
91 66 -675.9999999999999
42 67 -675.9999999999999
66 67 -675.9999999999999
67 67  2704
68 67 -675.9999999999999
92 67 -675.9999999999999
43 68 -675.9999999999999
67 68 -675.9999999999999
68 68  2704
69 68 -675.9999999999999
93 68 -675.9999999999999
44 69 -675.9999999999999
68 69 -675.9999999999999
69 69  2704
70 69 -675.9999999999999
94 69 -675.9999999999999
45 70 -675.9999999999999
69 70 -675.9999999999999
70 70  2704
71 70 -675.9999999999999
95 70 -675.9999999999999
46 71 -675.9999999999999
70 71 -675.9999999999999
71 71  2704
72 71 -675.9999999999999
96 71 -675.9999999999999
47 72 -675.9999999999999
71 72 -675.9999999999999
72 72  2704
73 72 -675.9999999999999
97 72 -675.9999999999999
48 73 -675.9999999999999
72 73 -675.9999999999999
73 73  2704
74 73 -675.9999999999999
98 73 -675.9999999999999
49 74 -675.9999999999999
73 74 -675.9999999999999
74 74  2704
75 74 -675.9999999999999
99 74 -675.9999999999999
50 75 -675.9999999999999
74 75 -675.9999999999999
75 75  2704
100 75 -675.9999999999999
51 76 -675.9999999999999
76 76  2704
77 76 -675.9999999999999
101 76 -675.9999999999999
52 77 -675.9999999999999
76 77 -675.9999999999999
77 77  2704
78 77 -675.9999999999999
102 77 -675.9999999999999
53 78 -675.9999999999999
77 78 -675.9999999999999
78 78  2704
79 78 -675.9999999999999
103 78 -675.9999999999999
54 79 -675.9999999999999
78 79 -675.9999999999999
79 79  2704
80 79 -675.9999999999999
104 79 -675.9999999999999
55 80 -675.9999999999999
79 80 -675.9999999999999
80 80  2704
81 80 -675.9999999999999
105 80 -675.9999999999999
56 81 -675.9999999999999
80 81 -675.9999999999999
81 81  2704
82 81 -675.9999999999999
106 81 -675.9999999999999
57 82 -675.9999999999999
81 82 -675.9999999999999
82 82  2704
83 82 -675.9999999999999
107 82 -675.9999999999999
58 83 -675.9999999999999
82 83 -675.9999999999999
83 83  2704
84 83 -675.9999999999999
108 83 -675.9999999999999
59 84 -675.9999999999999
83 84 -675.9999999999999
84 84  2704
85 84 -675.9999999999999
109 84 -675.9999999999999
60 85 -675.9999999999999
84 85 -675.9999999999999
85 85  2704
86 85 -675.9999999999999
110 85 -675.9999999999999
61 86 -675.9999999999999
85 86 -675.9999999999999
86 86  2704
87 86 -675.9999999999999
111 86 -675.9999999999999
62 87 -675.9999999999999
86 87 -675.9999999999999
87 87  2704
88 87 -675.9999999999999
112 87 -675.9999999999999
63 88 -675.9999999999999
87 88 -675.9999999999999
88 88  2704
89 88 -675.9999999999999
113 88 -675.9999999999999
64 89 -675.9999999999999
88 89 -675.9999999999999
89 89  2704
90 89 -675.9999999999999
114 89 -675.9999999999999
65 90 -675.9999999999999
89 90 -675.9999999999999
90 90  2704
91 90 -675.9999999999999
115 90 -675.9999999999999
66 91 -675.9999999999999
90 91 -675.9999999999999
91 91  2704
92 91 -675.9999999999999
116 91 -675.9999999999999
67 92 -675.9999999999999
91 92 -675.9999999999999
92 92  2704
93 92 -675.9999999999999
117 92 -675.9999999999999
68 93 -675.9999999999999
92 93 -675.9999999999999
93 93  2704
94 93 -675.9999999999999
118 93 -675.9999999999999
69 94 -675.9999999999999
93 94 -675.9999999999999
94 94  2704
95 94 -675.9999999999999
119 94 -675.9999999999999
70 95 -675.9999999999999
94 95 -675.9999999999999
95 95  2704
96 95 -675.9999999999999
120 95 -675.9999999999999
71 96 -675.9999999999999
95 96 -675.9999999999999
96 96  2704
97 96 -675.9999999999999
121 96 -675.9999999999999
72 97 -675.9999999999999
96 97 -675.9999999999999
97 97  2704
98 97 -675.9999999999999
122 97 -675.9999999999999
73 98 -675.9999999999999
97 98 -675.9999999999999
98 98  2704
99 98 -675.9999999999999
123 98 -675.9999999999999
74 99 -675.9999999999999
98 99 -675.9999999999999
99 99  2704
100 99 -675.9999999999999
124 99 -675.9999999999999
75 100 -675.9999999999999
99 100 -675.9999999999999
100 100  2704
125 100 -675.9999999999999
76 101 -675.9999999999999
101 101  2704
102 101 -675.9999999999999
126 101 -675.9999999999999
77 102 -675.9999999999999
101 102 -675.9999999999999
102 102  2704
103 102 -675.9999999999999
127 102 -675.9999999999999
78 103 -675.9999999999999
102 103 -675.9999999999999
103 103  2704
104 103 -675.9999999999999
128 103 -675.9999999999999
79 104 -675.9999999999999
103 104 -675.9999999999999
104 104  2704
105 104 -675.9999999999999
129 104 -675.9999999999999
80 105 -675.9999999999999
104 105 -675.9999999999999
105 105  2704
106 105 -675.9999999999999
130 105 -675.9999999999999
81 106 -675.9999999999999
105 106 -675.9999999999999
106 106  2704
107 106 -675.9999999999999
131 106 -675.9999999999999
82 107 -675.9999999999999
106 107 -675.9999999999999
107 107  2704
108 107 -675.9999999999999
132 107 -675.9999999999999
83 108 -675.9999999999999
107 108 -675.9999999999999
108 108  2704
109 108 -675.9999999999999
133 108 -675.9999999999999
84 109 -675.9999999999999
108 109 -675.9999999999999
109 109  2704
110 109 -675.9999999999999
134 109 -675.9999999999999
85 110 -675.9999999999999
109 110 -675.9999999999999
110 110  2704
111 110 -675.9999999999999
135 110 -675.9999999999999
86 111 -675.9999999999999
110 111 -675.9999999999999
111 111  2704
112 111 -675.9999999999999
136 111 -675.9999999999999
87 112 -675.9999999999999
111 112 -675.9999999999999
112 112  2704
113 112 -675.9999999999999
137 112 -675.9999999999999
88 113 -675.9999999999999
112 113 -675.9999999999999
113 113  2704
114 113 -675.9999999999999
138 113 -675.9999999999999
89 114 -675.9999999999999
113 114 -675.9999999999999
114 114  2704
115 114 -675.9999999999999
139 114 -675.9999999999999
90 115 -675.9999999999999
114 115 -675.9999999999999
115 115  2704
116 115 -675.9999999999999
140 115 -675.9999999999999
91 116 -675.9999999999999
115 116 -675.9999999999999
116 116  2704
117 116 -675.9999999999999
141 116 -675.9999999999999
92 117 -675.9999999999999
116 117 -675.9999999999999
117 117  2704
118 117 -675.9999999999999
142 117 -675.9999999999999
93 118 -675.9999999999999
117 118 -675.9999999999999
118 118  2704
119 118 -675.9999999999999
143 118 -675.9999999999999
94 119 -675.9999999999999
118 119 -675.9999999999999
119 119  2704
120 119 -675.9999999999999
144 119 -675.9999999999999
95 120 -675.9999999999999
119 120 -675.9999999999999
120 120  2704
121 120 -675.9999999999999
145 120 -675.9999999999999
96 121 -675.9999999999999
120 121 -675.9999999999999
121 121  2704
122 121 -675.9999999999999
146 121 -675.9999999999999
97 122 -675.9999999999999
121 122 -675.9999999999999
122 122  2704
123 122 -675.9999999999999
147 122 -675.9999999999999
98 123 -675.9999999999999
122 123 -675.9999999999999
123 123  2704
124 123 -675.9999999999999
148 123 -675.9999999999999
99 124 -675.9999999999999
123 124 -675.9999999999999
124 124  2704
125 124 -675.9999999999999
149 124 -675.9999999999999
100 125 -675.9999999999999
124 125 -675.9999999999999
125 125  2704
150 125 -675.9999999999999
101 126 -675.9999999999999
126 126  2704
127 126 -675.9999999999999
151 126 -675.9999999999999
102 127 -675.9999999999999
126 127 -675.9999999999999
127 127  2704
128 127 -675.9999999999999
152 127 -675.9999999999999
103 128 -675.9999999999999
127 128 -675.9999999999999
128 128  2704
129 128 -675.9999999999999
153 128 -675.9999999999999
104 129 -675.9999999999999
128 129 -675.9999999999999
129 129  2704
130 129 -675.9999999999999
154 129 -675.9999999999999
105 130 -675.9999999999999
129 130 -675.9999999999999
130 130  2704
131 130 -675.9999999999999
155 130 -675.9999999999999
106 131 -675.9999999999999
130 131 -675.9999999999999
131 131  2704
132 131 -675.9999999999999
156 131 -675.9999999999999
107 132 -675.9999999999999
131 132 -675.9999999999999
132 132  2704
133 132 -675.9999999999999
157 132 -675.9999999999999
108 133 -675.9999999999999
132 133 -675.9999999999999
133 133  2704
134 133 -675.9999999999999
158 133 -675.9999999999999
109 134 -675.9999999999999
133 134 -675.9999999999999
134 134  2704
135 134 -675.9999999999999
159 134 -675.9999999999999
110 135 -675.9999999999999
134 135 -675.9999999999999
135 135  2704
136 135 -675.9999999999999
160 135 -675.9999999999999
111 136 -675.9999999999999
135 136 -675.9999999999999
136 136  2704
137 136 -675.9999999999999
161 136 -675.9999999999999
112 137 -675.9999999999999
136 137 -675.9999999999999
137 137  2704
138 137 -675.9999999999999
162 137 -675.9999999999999
113 138 -675.9999999999999
137 138 -675.9999999999999
138 138  2704
139 138 -675.9999999999999
163 138 -675.9999999999999
114 139 -675.9999999999999
138 139 -675.9999999999999
139 139  2704
140 139 -675.9999999999999
164 139 -675.9999999999999
115 140 -675.9999999999999
139 140 -675.9999999999999
140 140  2704
141 140 -675.9999999999999
165 140 -675.9999999999999
116 141 -675.9999999999999
140 141 -675.9999999999999
141 141  2704
142 141 -675.9999999999999
166 141 -675.9999999999999
117 142 -675.9999999999999
141 142 -675.9999999999999
142 142  2704
143 142 -675.9999999999999
167 142 -675.9999999999999
118 143 -675.9999999999999
142 143 -675.9999999999999
143 143  2704
144 143 -675.9999999999999
168 143 -675.9999999999999
119 144 -675.9999999999999
143 144 -675.9999999999999
144 144  2704
145 144 -675.9999999999999
169 144 -675.9999999999999
120 145 -675.9999999999999
144 145 -675.9999999999999
145 145  2704
146 145 -675.9999999999999
170 145 -675.9999999999999
121 146 -675.9999999999999
145 146 -675.9999999999999
146 146  2704
147 146 -675.9999999999999
171 146 -675.9999999999999
122 147 -675.9999999999999
146 147 -675.9999999999999
147 147  2704
148 147 -675.9999999999999
172 147 -675.9999999999999
123 148 -675.9999999999999
147 148 -675.9999999999999
148 148  2704
149 148 -675.9999999999999
173 148 -675.9999999999999
124 149 -675.9999999999999
148 149 -675.9999999999999
149 149  2704
150 149 -675.9999999999999
174 149 -675.9999999999999
125 150 -675.9999999999999
149 150 -675.9999999999999
150 150  2704
175 150 -675.9999999999999
126 151 -675.9999999999999
151 151  2704
152 151 -675.9999999999999
176 151 -675.9999999999999
127 152 -675.9999999999999
151 152 -675.9999999999999
152 152  2704
153 152 -675.9999999999999
177 152 -675.9999999999999
128 153 -675.9999999999999
152 153 -675.9999999999999
153 153  2704
154 153 -675.9999999999999
178 153 -675.9999999999999
129 154 -675.9999999999999
153 154 -675.9999999999999
154 154  2704
155 154 -675.9999999999999
179 154 -675.9999999999999
130 155 -675.9999999999999
154 155 -675.9999999999999
155 155  2704
156 155 -675.9999999999999
180 155 -675.9999999999999
131 156 -675.9999999999999
155 156 -675.9999999999999
156 156  2704
157 156 -675.9999999999999
181 156 -675.9999999999999
132 157 -675.9999999999999
156 157 -675.9999999999999
157 157  2704
158 157 -675.9999999999999
182 157 -675.9999999999999
133 158 -675.9999999999999
157 158 -675.9999999999999
158 158  2704
159 158 -675.9999999999999
183 158 -675.9999999999999
134 159 -675.9999999999999
158 159 -675.9999999999999
159 159  2704
160 159 -675.9999999999999
184 159 -675.9999999999999
135 160 -675.9999999999999
159 160 -675.9999999999999
160 160  2704
161 160 -675.9999999999999
185 160 -675.9999999999999
136 161 -675.9999999999999
160 161 -675.9999999999999
161 161  2704
162 161 -675.9999999999999
186 161 -675.9999999999999
137 162 -675.9999999999999
161 162 -675.9999999999999
162 162  2704
163 162 -675.9999999999999
187 162 -675.9999999999999
138 163 -675.9999999999999
162 163 -675.9999999999999
163 163  2704
164 163 -675.9999999999999
188 163 -675.9999999999999
139 164 -675.9999999999999
163 164 -675.9999999999999
164 164  2704
165 164 -675.9999999999999
189 164 -675.9999999999999
140 165 -675.9999999999999
164 165 -675.9999999999999
165 165  2704
166 165 -675.9999999999999
190 165 -675.9999999999999
141 166 -675.9999999999999
165 166 -675.9999999999999
166 166  2704
167 166 -675.9999999999999
191 166 -675.9999999999999
142 167 -675.9999999999999
166 167 -675.9999999999999
167 167  2704
168 167 -675.9999999999999
192 167 -675.9999999999999
143 168 -675.9999999999999
167 168 -675.9999999999999
168 168  2704
169 168 -675.9999999999999
193 168 -675.9999999999999
144 169 -675.9999999999999
168 169 -675.9999999999999
169 169  2704
170 169 -675.9999999999999
194 169 -675.9999999999999
145 170 -675.9999999999999
169 170 -675.9999999999999
170 170  2704
171 170 -675.9999999999999
195 170 -675.9999999999999
146 171 -675.9999999999999
170 171 -675.9999999999999
171 171  2704
172 171 -675.9999999999999
196 171 -675.9999999999999
147 172 -675.9999999999999
171 172 -675.9999999999999
172 172  2704
173 172 -675.9999999999999
197 172 -675.9999999999999
148 173 -675.9999999999999
172 173 -675.9999999999999
173 173  2704
174 173 -675.9999999999999
198 173 -675.9999999999999
149 174 -675.9999999999999
173 174 -675.9999999999999
174 174  2704
175 174 -675.9999999999999
199 174 -675.9999999999999
150 175 -675.9999999999999
174 175 -675.9999999999999
175 175  2704
200 175 -675.9999999999999
151 176 -675.9999999999999
176 176  2704
177 176 -675.9999999999999
201 176 -675.9999999999999
152 177 -675.9999999999999
176 177 -675.9999999999999
177 177  2704
178 177 -675.9999999999999
202 177 -675.9999999999999
153 178 -675.9999999999999
177 178 -675.9999999999999
178 178  2704
179 178 -675.9999999999999
203 178 -675.9999999999999
154 179 -675.9999999999999
178 179 -675.9999999999999
179 179  2704
180 179 -675.9999999999999
204 179 -675.9999999999999
155 180 -675.9999999999999
179 180 -675.9999999999999
180 180  2704
181 180 -675.9999999999999
205 180 -675.9999999999999
156 181 -675.9999999999999
180 181 -675.9999999999999
181 181  2704
182 181 -675.9999999999999
206 181 -675.9999999999999
157 182 -675.9999999999999
181 182 -675.9999999999999
182 182  2704
183 182 -675.9999999999999
207 182 -675.9999999999999
158 183 -675.9999999999999
182 183 -675.9999999999999
183 183  2704
184 183 -675.9999999999999
208 183 -675.9999999999999
159 184 -675.9999999999999
183 184 -675.9999999999999
184 184  2704
185 184 -675.9999999999999
209 184 -675.9999999999999
160 185 -675.9999999999999
184 185 -675.9999999999999
185 185  2704
186 185 -675.9999999999999
210 185 -675.9999999999999
161 186 -675.9999999999999
185 186 -675.9999999999999
186 186  2704
187 186 -675.9999999999999
211 186 -675.9999999999999
162 187 -675.9999999999999
186 187 -675.9999999999999
187 187  2704
188 187 -675.9999999999999
212 187 -675.9999999999999
163 188 -675.9999999999999
187 188 -675.9999999999999
188 188  2704
189 188 -675.9999999999999
213 188 -675.9999999999999
164 189 -675.9999999999999
188 189 -675.9999999999999
189 189  2704
190 189 -675.9999999999999
214 189 -675.9999999999999
165 190 -675.9999999999999
189 190 -675.9999999999999
190 190  2704
191 190 -675.9999999999999
215 190 -675.9999999999999
166 191 -675.9999999999999
190 191 -675.9999999999999
191 191  2704
192 191 -675.9999999999999
216 191 -675.9999999999999
167 192 -675.9999999999999
191 192 -675.9999999999999
192 192  2704
193 192 -675.9999999999999
217 192 -675.9999999999999
168 193 -675.9999999999999
192 193 -675.9999999999999
193 193  2704
194 193 -675.9999999999999
218 193 -675.9999999999999
169 194 -675.9999999999999
193 194 -675.9999999999999
194 194  2704
195 194 -675.9999999999999
219 194 -675.9999999999999
170 195 -675.9999999999999
194 195 -675.9999999999999
195 195  2704
196 195 -675.9999999999999
220 195 -675.9999999999999
171 196 -675.9999999999999
195 196 -675.9999999999999
196 196  2704
197 196 -675.9999999999999
221 196 -675.9999999999999
172 197 -675.9999999999999
196 197 -675.9999999999999
197 197  2704
198 197 -675.9999999999999
222 197 -675.9999999999999
173 198 -675.9999999999999
197 198 -675.9999999999999
198 198  2704
199 198 -675.9999999999999
223 198 -675.9999999999999
174 199 -675.9999999999999
198 199 -675.9999999999999
199 199  2704
200 199 -675.9999999999999
224 199 -675.9999999999999
175 200 -675.9999999999999
199 200 -675.9999999999999
200 200  2704
225 200 -675.9999999999999
176 201 -675.9999999999999
201 201  2704
202 201 -675.9999999999999
226 201 -675.9999999999999
177 202 -675.9999999999999
201 202 -675.9999999999999
202 202  2704
203 202 -675.9999999999999
227 202 -675.9999999999999
178 203 -675.9999999999999
202 203 -675.9999999999999
203 203  2704
204 203 -675.9999999999999
228 203 -675.9999999999999
179 204 -675.9999999999999
203 204 -675.9999999999999
204 204  2704
205 204 -675.9999999999999
229 204 -675.9999999999999
180 205 -675.9999999999999
204 205 -675.9999999999999
205 205  2704
206 205 -675.9999999999999
230 205 -675.9999999999999
181 206 -675.9999999999999
205 206 -675.9999999999999
206 206  2704
207 206 -675.9999999999999
231 206 -675.9999999999999
182 207 -675.9999999999999
206 207 -675.9999999999999
207 207  2704
208 207 -675.9999999999999
232 207 -675.9999999999999
183 208 -675.9999999999999
207 208 -675.9999999999999
208 208  2704
209 208 -675.9999999999999
233 208 -675.9999999999999
184 209 -675.9999999999999
208 209 -675.9999999999999
209 209  2704
210 209 -675.9999999999999
234 209 -675.9999999999999
185 210 -675.9999999999999
209 210 -675.9999999999999
210 210  2704
211 210 -675.9999999999999
235 210 -675.9999999999999
186 211 -675.9999999999999
210 211 -675.9999999999999
211 211  2704
212 211 -675.9999999999999
236 211 -675.9999999999999
187 212 -675.9999999999999
211 212 -675.9999999999999
212 212  2704
213 212 -675.9999999999999
237 212 -675.9999999999999
188 213 -675.9999999999999
212 213 -675.9999999999999
213 213  2704
214 213 -675.9999999999999
238 213 -675.9999999999999
189 214 -675.9999999999999
213 214 -675.9999999999999
214 214  2704
215 214 -675.9999999999999
239 214 -675.9999999999999
190 215 -675.9999999999999
214 215 -675.9999999999999
215 215  2704
216 215 -675.9999999999999
240 215 -675.9999999999999
191 216 -675.9999999999999
215 216 -675.9999999999999
216 216  2704
217 216 -675.9999999999999
241 216 -675.9999999999999
192 217 -675.9999999999999
216 217 -675.9999999999999
217 217  2704
218 217 -675.9999999999999
242 217 -675.9999999999999
193 218 -675.9999999999999
217 218 -675.9999999999999
218 218  2704
219 218 -675.9999999999999
243 218 -675.9999999999999
194 219 -675.9999999999999
218 219 -675.9999999999999
219 219  2704
220 219 -675.9999999999999
244 219 -675.9999999999999
195 220 -675.9999999999999
219 220 -675.9999999999999
220 220  2704
221 220 -675.9999999999999
245 220 -675.9999999999999
196 221 -675.9999999999999
220 221 -675.9999999999999
221 221  2704
222 221 -675.9999999999999
246 221 -675.9999999999999
197 222 -675.9999999999999
221 222 -675.9999999999999
222 222  2704
223 222 -675.9999999999999
247 222 -675.9999999999999
198 223 -675.9999999999999
222 223 -675.9999999999999
223 223  2704
224 223 -675.9999999999999
248 223 -675.9999999999999
199 224 -675.9999999999999
223 224 -675.9999999999999
224 224  2704
225 224 -675.9999999999999
249 224 -675.9999999999999
200 225 -675.9999999999999
224 225 -675.9999999999999
225 225  2704
250 225 -675.9999999999999
201 226 -675.9999999999999
226 226  2704
227 226 -675.9999999999999
251 226 -675.9999999999999
202 227 -675.9999999999999
226 227 -675.9999999999999
227 227  2704
228 227 -675.9999999999999
252 227 -675.9999999999999
203 228 -675.9999999999999
227 228 -675.9999999999999
228 228  2704
229 228 -675.9999999999999
253 228 -675.9999999999999
204 229 -675.9999999999999
228 229 -675.9999999999999
229 229  2704
230 229 -675.9999999999999
254 229 -675.9999999999999
205 230 -675.9999999999999
229 230 -675.9999999999999
230 230  2704
231 230 -675.9999999999999
255 230 -675.9999999999999
206 231 -675.9999999999999
230 231 -675.9999999999999
231 231  2704
232 231 -675.9999999999999
256 231 -675.9999999999999
207 232 -675.9999999999999
231 232 -675.9999999999999
232 232  2704
233 232 -675.9999999999999
257 232 -675.9999999999999
208 233 -675.9999999999999
232 233 -675.9999999999999
233 233  2704
234 233 -675.9999999999999
258 233 -675.9999999999999
209 234 -675.9999999999999
233 234 -675.9999999999999
234 234  2704
235 234 -675.9999999999999
259 234 -675.9999999999999
210 235 -675.9999999999999
234 235 -675.9999999999999
235 235  2704
236 235 -675.9999999999999
260 235 -675.9999999999999
211 236 -675.9999999999999
235 236 -675.9999999999999
236 236  2704
237 236 -675.9999999999999
261 236 -675.9999999999999
212 237 -675.9999999999999
236 237 -675.9999999999999
237 237  2704
238 237 -675.9999999999999
262 237 -675.9999999999999
213 238 -675.9999999999999
237 238 -675.9999999999999
238 238  2704
239 238 -675.9999999999999
263 238 -675.9999999999999
214 239 -675.9999999999999
238 239 -675.9999999999999
239 239  2704
240 239 -675.9999999999999
264 239 -675.9999999999999
215 240 -675.9999999999999
239 240 -675.9999999999999
240 240  2704
241 240 -675.9999999999999
265 240 -675.9999999999999
216 241 -675.9999999999999
240 241 -675.9999999999999
241 241  2704
242 241 -675.9999999999999
266 241 -675.9999999999999
217 242 -675.9999999999999
241 242 -675.9999999999999
242 242  2704
243 242 -675.9999999999999
267 242 -675.9999999999999
218 243 -675.9999999999999
242 243 -675.9999999999999
243 243  2704
244 243 -675.9999999999999
268 243 -675.9999999999999
219 244 -675.9999999999999
243 244 -675.9999999999999
244 244  2704
245 244 -675.9999999999999
269 244 -675.9999999999999
220 245 -675.9999999999999
244 245 -675.9999999999999
245 245  2704
246 245 -675.9999999999999
270 245 -675.9999999999999
221 246 -675.9999999999999
245 246 -675.9999999999999
246 246  2704
247 246 -675.9999999999999
271 246 -675.9999999999999
222 247 -675.9999999999999
246 247 -675.9999999999999
247 247  2704
248 247 -675.9999999999999
272 247 -675.9999999999999
223 248 -675.9999999999999
247 248 -675.9999999999999
248 248  2704
249 248 -675.9999999999999
273 248 -675.9999999999999
224 249 -675.9999999999999
248 249 -675.9999999999999
249 249  2704
250 249 -675.9999999999999
274 249 -675.9999999999999
225 250 -675.9999999999999
249 250 -675.9999999999999
250 250  2704
275 250 -675.9999999999999
226 251 -675.9999999999999
251 251  2704
252 251 -675.9999999999999
276 251 -675.9999999999999
227 252 -675.9999999999999
251 252 -675.9999999999999
252 252  2704
253 252 -675.9999999999999
277 252 -675.9999999999999
228 253 -675.9999999999999
252 253 -675.9999999999999
253 253  2704
254 253 -675.9999999999999
278 253 -675.9999999999999
229 254 -675.9999999999999
253 254 -675.9999999999999
254 254  2704
255 254 -675.9999999999999
279 254 -675.9999999999999
230 255 -675.9999999999999
254 255 -675.9999999999999
255 255  2704
256 255 -675.9999999999999
280 255 -675.9999999999999
231 256 -675.9999999999999
255 256 -675.9999999999999
256 256  2704
257 256 -675.9999999999999
281 256 -675.9999999999999
232 257 -675.9999999999999
256 257 -675.9999999999999
257 257  2704
258 257 -675.9999999999999
282 257 -675.9999999999999
233 258 -675.9999999999999
257 258 -675.9999999999999
258 258  2704
259 258 -675.9999999999999
283 258 -675.9999999999999
234 259 -675.9999999999999
258 259 -675.9999999999999
259 259  2704
260 259 -675.9999999999999
284 259 -675.9999999999999
235 260 -675.9999999999999
259 260 -675.9999999999999
260 260  2704
261 260 -675.9999999999999
285 260 -675.9999999999999
236 261 -675.9999999999999
260 261 -675.9999999999999
261 261  2704
262 261 -675.9999999999999
286 261 -675.9999999999999
237 262 -675.9999999999999
261 262 -675.9999999999999
262 262  2704
263 262 -675.9999999999999
287 262 -675.9999999999999
238 263 -675.9999999999999
262 263 -675.9999999999999
263 263  2704
264 263 -675.9999999999999
288 263 -675.9999999999999
239 264 -675.9999999999999
263 264 -675.9999999999999
264 264  2704
265 264 -675.9999999999999
289 264 -675.9999999999999
240 265 -675.9999999999999
264 265 -675.9999999999999
265 265  2704
266 265 -675.9999999999999
290 265 -675.9999999999999
241 266 -675.9999999999999
265 266 -675.9999999999999
266 266  2704
267 266 -675.9999999999999
291 266 -675.9999999999999
242 267 -675.9999999999999
266 267 -675.9999999999999
267 267  2704
268 267 -675.9999999999999
292 267 -675.9999999999999
243 268 -675.9999999999999
267 268 -675.9999999999999
268 268  2704
269 268 -675.9999999999999
293 268 -675.9999999999999
244 269 -675.9999999999999
268 269 -675.9999999999999
269 269  2704
270 269 -675.9999999999999
294 269 -675.9999999999999
245 270 -675.9999999999999
269 270 -675.9999999999999
270 270  2704
271 270 -675.9999999999999
295 270 -675.9999999999999
246 271 -675.9999999999999
270 271 -675.9999999999999
271 271  2704
272 271 -675.9999999999999
296 271 -675.9999999999999
247 272 -675.9999999999999
271 272 -675.9999999999999
272 272  2704
273 272 -675.9999999999999
297 272 -675.9999999999999
248 273 -675.9999999999999
272 273 -675.9999999999999
273 273  2704
274 273 -675.9999999999999
298 273 -675.9999999999999
249 274 -675.9999999999999
273 274 -675.9999999999999
274 274  2704
275 274 -675.9999999999999
299 274 -675.9999999999999
250 275 -675.9999999999999
274 275 -675.9999999999999
275 275  2704
300 275 -675.9999999999999
251 276 -675.9999999999999
276 276  2704
277 276 -675.9999999999999
301 276 -675.9999999999999
252 277 -675.9999999999999
276 277 -675.9999999999999
277 277  2704
278 277 -675.9999999999999
302 277 -675.9999999999999
253 278 -675.9999999999999
277 278 -675.9999999999999
278 278  2704
279 278 -675.9999999999999
303 278 -675.9999999999999
254 279 -675.9999999999999
278 279 -675.9999999999999
279 279  2704
280 279 -675.9999999999999
304 279 -675.9999999999999
255 280 -675.9999999999999
279 280 -675.9999999999999
280 280  2704
281 280 -675.9999999999999
305 280 -675.9999999999999
256 281 -675.9999999999999
280 281 -675.9999999999999
281 281  2704
282 281 -675.9999999999999
306 281 -675.9999999999999
257 282 -675.9999999999999
281 282 -675.9999999999999
282 282  2704
283 282 -675.9999999999999
307 282 -675.9999999999999
258 283 -675.9999999999999
282 283 -675.9999999999999
283 283  2704
284 283 -675.9999999999999
308 283 -675.9999999999999
259 284 -675.9999999999999
283 284 -675.9999999999999
284 284  2704
285 284 -675.9999999999999
309 284 -675.9999999999999
260 285 -675.9999999999999
284 285 -675.9999999999999
285 285  2704
286 285 -675.9999999999999
310 285 -675.9999999999999
261 286 -675.9999999999999
285 286 -675.9999999999999
286 286  2704
287 286 -675.9999999999999
311 286 -675.9999999999999
262 287 -675.9999999999999
286 287 -675.9999999999999
287 287  2704
288 287 -675.9999999999999
312 287 -675.9999999999999
263 288 -675.9999999999999
287 288 -675.9999999999999
288 288  2704
289 288 -675.9999999999999
313 288 -675.9999999999999
264 289 -675.9999999999999
288 289 -675.9999999999999
289 289  2704
290 289 -675.9999999999999
314 289 -675.9999999999999
265 290 -675.9999999999999
289 290 -675.9999999999999
290 290  2704
291 290 -675.9999999999999
315 290 -675.9999999999999
266 291 -675.9999999999999
290 291 -675.9999999999999
291 291  2704
292 291 -675.9999999999999
316 291 -675.9999999999999
267 292 -675.9999999999999
291 292 -675.9999999999999
292 292  2704
293 292 -675.9999999999999
317 292 -675.9999999999999
268 293 -675.9999999999999
292 293 -675.9999999999999
293 293  2704
294 293 -675.9999999999999
318 293 -675.9999999999999
269 294 -675.9999999999999
293 294 -675.9999999999999
294 294  2704
295 294 -675.9999999999999
319 294 -675.9999999999999
270 295 -675.9999999999999
294 295 -675.9999999999999
295 295  2704
296 295 -675.9999999999999
320 295 -675.9999999999999
271 296 -675.9999999999999
295 296 -675.9999999999999
296 296  2704
297 296 -675.9999999999999
321 296 -675.9999999999999
272 297 -675.9999999999999
296 297 -675.9999999999999
297 297  2704
298 297 -675.9999999999999
322 297 -675.9999999999999
273 298 -675.9999999999999
297 298 -675.9999999999999
298 298  2704
299 298 -675.9999999999999
323 298 -675.9999999999999
274 299 -675.9999999999999
298 299 -675.9999999999999
299 299  2704
300 299 -675.9999999999999
324 299 -675.9999999999999
275 300 -675.9999999999999
299 300 -675.9999999999999
300 300  2704
325 300 -675.9999999999999
276 301 -675.9999999999999
301 301  2704
302 301 -675.9999999999999
326 301 -675.9999999999999
277 302 -675.9999999999999
301 302 -675.9999999999999
302 302  2704
303 302 -675.9999999999999
327 302 -675.9999999999999
278 303 -675.9999999999999
302 303 -675.9999999999999
303 303  2704
304 303 -675.9999999999999
328 303 -675.9999999999999
279 304 -675.9999999999999
303 304 -675.9999999999999
304 304  2704
305 304 -675.9999999999999
329 304 -675.9999999999999
280 305 -675.9999999999999
304 305 -675.9999999999999
305 305  2704
306 305 -675.9999999999999
330 305 -675.9999999999999
281 306 -675.9999999999999
305 306 -675.9999999999999
306 306  2704
307 306 -675.9999999999999
331 306 -675.9999999999999
282 307 -675.9999999999999
306 307 -675.9999999999999
307 307  2704
308 307 -675.9999999999999
332 307 -675.9999999999999
283 308 -675.9999999999999
307 308 -675.9999999999999
308 308  2704
309 308 -675.9999999999999
333 308 -675.9999999999999
284 309 -675.9999999999999
308 309 -675.9999999999999
309 309  2704
310 309 -675.9999999999999
334 309 -675.9999999999999
285 310 -675.9999999999999
309 310 -675.9999999999999
310 310  2704
311 310 -675.9999999999999
335 310 -675.9999999999999
286 311 -675.9999999999999
310 311 -675.9999999999999
311 311  2704
312 311 -675.9999999999999
336 311 -675.9999999999999
287 312 -675.9999999999999
311 312 -675.9999999999999
312 312  2704
313 312 -675.9999999999999
337 312 -675.9999999999999
288 313 -675.9999999999999
312 313 -675.9999999999999
313 313  2704
314 313 -675.9999999999999
338 313 -675.9999999999999
289 314 -675.9999999999999
313 314 -675.9999999999999
314 314  2704
315 314 -675.9999999999999
339 314 -675.9999999999999
290 315 -675.9999999999999
314 315 -675.9999999999999
315 315  2704
316 315 -675.9999999999999
340 315 -675.9999999999999
291 316 -675.9999999999999
315 316 -675.9999999999999
316 316  2704
317 316 -675.9999999999999
341 316 -675.9999999999999
292 317 -675.9999999999999
316 317 -675.9999999999999
317 317  2704
318 317 -675.9999999999999
342 317 -675.9999999999999
293 318 -675.9999999999999
317 318 -675.9999999999999
318 318  2704
319 318 -675.9999999999999
343 318 -675.9999999999999
294 319 -675.9999999999999
318 319 -675.9999999999999
319 319  2704
320 319 -675.9999999999999
344 319 -675.9999999999999
295 320 -675.9999999999999
319 320 -675.9999999999999
320 320  2704
321 320 -675.9999999999999
345 320 -675.9999999999999
296 321 -675.9999999999999
320 321 -675.9999999999999
321 321  2704
322 321 -675.9999999999999
346 321 -675.9999999999999
297 322 -675.9999999999999
321 322 -675.9999999999999
322 322  2704
323 322 -675.9999999999999
347 322 -675.9999999999999
298 323 -675.9999999999999
322 323 -675.9999999999999
323 323  2704
324 323 -675.9999999999999
348 323 -675.9999999999999
299 324 -675.9999999999999
323 324 -675.9999999999999
324 324  2704
325 324 -675.9999999999999
349 324 -675.9999999999999
300 325 -675.9999999999999
324 325 -675.9999999999999
325 325  2704
350 325 -675.9999999999999
301 326 -675.9999999999999
326 326  2704
327 326 -675.9999999999999
351 326 -675.9999999999999
302 327 -675.9999999999999
326 327 -675.9999999999999
327 327  2704
328 327 -675.9999999999999
352 327 -675.9999999999999
303 328 -675.9999999999999
327 328 -675.9999999999999
328 328  2704
329 328 -675.9999999999999
353 328 -675.9999999999999
304 329 -675.9999999999999
328 329 -675.9999999999999
329 329  2704
330 329 -675.9999999999999
354 329 -675.9999999999999
305 330 -675.9999999999999
329 330 -675.9999999999999
330 330  2704
331 330 -675.9999999999999
355 330 -675.9999999999999
306 331 -675.9999999999999
330 331 -675.9999999999999
331 331  2704
332 331 -675.9999999999999
356 331 -675.9999999999999
307 332 -675.9999999999999
331 332 -675.9999999999999
332 332  2704
333 332 -675.9999999999999
357 332 -675.9999999999999
308 333 -675.9999999999999
332 333 -675.9999999999999
333 333  2704
334 333 -675.9999999999999
358 333 -675.9999999999999
309 334 -675.9999999999999
333 334 -675.9999999999999
334 334  2704
335 334 -675.9999999999999
359 334 -675.9999999999999
310 335 -675.9999999999999
334 335 -675.9999999999999
335 335  2704
336 335 -675.9999999999999
360 335 -675.9999999999999
311 336 -675.9999999999999
335 336 -675.9999999999999
336 336  2704
337 336 -675.9999999999999
361 336 -675.9999999999999
312 337 -675.9999999999999
336 337 -675.9999999999999
337 337  2704
338 337 -675.9999999999999
362 337 -675.9999999999999
313 338 -675.9999999999999
337 338 -675.9999999999999
338 338  2704
339 338 -675.9999999999999
363 338 -675.9999999999999
314 339 -675.9999999999999
338 339 -675.9999999999999
339 339  2704
340 339 -675.9999999999999
364 339 -675.9999999999999
315 340 -675.9999999999999
339 340 -675.9999999999999
340 340  2704
341 340 -675.9999999999999
365 340 -675.9999999999999
316 341 -675.9999999999999
340 341 -675.9999999999999
341 341  2704
342 341 -675.9999999999999
366 341 -675.9999999999999
317 342 -675.9999999999999
341 342 -675.9999999999999
342 342  2704
343 342 -675.9999999999999
367 342 -675.9999999999999
318 343 -675.9999999999999
342 343 -675.9999999999999
343 343  2704
344 343 -675.9999999999999
368 343 -675.9999999999999
319 344 -675.9999999999999
343 344 -675.9999999999999
344 344  2704
345 344 -675.9999999999999
369 344 -675.9999999999999
320 345 -675.9999999999999
344 345 -675.9999999999999
345 345  2704
346 345 -675.9999999999999
370 345 -675.9999999999999
321 346 -675.9999999999999
345 346 -675.9999999999999
346 346  2704
347 346 -675.9999999999999
371 346 -675.9999999999999
322 347 -675.9999999999999
346 347 -675.9999999999999
347 347  2704
348 347 -675.9999999999999
372 347 -675.9999999999999
323 348 -675.9999999999999
347 348 -675.9999999999999
348 348  2704
349 348 -675.9999999999999
373 348 -675.9999999999999
324 349 -675.9999999999999
348 349 -675.9999999999999
349 349  2704
350 349 -675.9999999999999
374 349 -675.9999999999999
325 350 -675.9999999999999
349 350 -675.9999999999999
350 350  2704
375 350 -675.9999999999999
326 351 -675.9999999999999
351 351  2704
352 351 -675.9999999999999
376 351 -675.9999999999999
327 352 -675.9999999999999
351 352 -675.9999999999999
352 352  2704
353 352 -675.9999999999999
377 352 -675.9999999999999
328 353 -675.9999999999999
352 353 -675.9999999999999
353 353  2704
354 353 -675.9999999999999
378 353 -675.9999999999999
329 354 -675.9999999999999
353 354 -675.9999999999999
354 354  2704
355 354 -675.9999999999999
379 354 -675.9999999999999
330 355 -675.9999999999999
354 355 -675.9999999999999
355 355  2704
356 355 -675.9999999999999
380 355 -675.9999999999999
331 356 -675.9999999999999
355 356 -675.9999999999999
356 356  2704
357 356 -675.9999999999999
381 356 -675.9999999999999
332 357 -675.9999999999999
356 357 -675.9999999999999
357 357  2704
358 357 -675.9999999999999
382 357 -675.9999999999999
333 358 -675.9999999999999
357 358 -675.9999999999999
358 358  2704
359 358 -675.9999999999999
383 358 -675.9999999999999
334 359 -675.9999999999999
358 359 -675.9999999999999
359 359  2704
360 359 -675.9999999999999
384 359 -675.9999999999999
335 360 -675.9999999999999
359 360 -675.9999999999999
360 360  2704
361 360 -675.9999999999999
385 360 -675.9999999999999
336 361 -675.9999999999999
360 361 -675.9999999999999
361 361  2704
362 361 -675.9999999999999
386 361 -675.9999999999999
337 362 -675.9999999999999
361 362 -675.9999999999999
362 362  2704
363 362 -675.9999999999999
387 362 -675.9999999999999
338 363 -675.9999999999999
362 363 -675.9999999999999
363 363  2704
364 363 -675.9999999999999
388 363 -675.9999999999999
339 364 -675.9999999999999
363 364 -675.9999999999999
364 364  2704
365 364 -675.9999999999999
389 364 -675.9999999999999
340 365 -675.9999999999999
364 365 -675.9999999999999
365 365  2704
366 365 -675.9999999999999
390 365 -675.9999999999999
341 366 -675.9999999999999
365 366 -675.9999999999999
366 366  2704
367 366 -675.9999999999999
391 366 -675.9999999999999
342 367 -675.9999999999999
366 367 -675.9999999999999
367 367  2704
368 367 -675.9999999999999
392 367 -675.9999999999999
343 368 -675.9999999999999
367 368 -675.9999999999999
368 368  2704
369 368 -675.9999999999999
393 368 -675.9999999999999
344 369 -675.9999999999999
368 369 -675.9999999999999
369 369  2704
370 369 -675.9999999999999
394 369 -675.9999999999999
345 370 -675.9999999999999
369 370 -675.9999999999999
370 370  2704
371 370 -675.9999999999999
395 370 -675.9999999999999
346 371 -675.9999999999999
370 371 -675.9999999999999
371 371  2704
372 371 -675.9999999999999
396 371 -675.9999999999999
347 372 -675.9999999999999
371 372 -675.9999999999999
372 372  2704
373 372 -675.9999999999999
397 372 -675.9999999999999
348 373 -675.9999999999999
372 373 -675.9999999999999
373 373  2704
374 373 -675.9999999999999
398 373 -675.9999999999999
349 374 -675.9999999999999
373 374 -675.9999999999999
374 374  2704
375 374 -675.9999999999999
399 374 -675.9999999999999
350 375 -675.9999999999999
374 375 -675.9999999999999
375 375  2704
400 375 -675.9999999999999
351 376 -675.9999999999999
376 376  2704
377 376 -675.9999999999999
401 376 -675.9999999999999
352 377 -675.9999999999999
376 377 -675.9999999999999
377 377  2704
378 377 -675.9999999999999
402 377 -675.9999999999999
353 378 -675.9999999999999
377 378 -675.9999999999999
378 378  2704
379 378 -675.9999999999999
403 378 -675.9999999999999
354 379 -675.9999999999999
378 379 -675.9999999999999
379 379  2704
380 379 -675.9999999999999
404 379 -675.9999999999999
355 380 -675.9999999999999
379 380 -675.9999999999999
380 380  2704
381 380 -675.9999999999999
405 380 -675.9999999999999
356 381 -675.9999999999999
380 381 -675.9999999999999
381 381  2704
382 381 -675.9999999999999
406 381 -675.9999999999999
357 382 -675.9999999999999
381 382 -675.9999999999999
382 382  2704
383 382 -675.9999999999999
407 382 -675.9999999999999
358 383 -675.9999999999999
382 383 -675.9999999999999
383 383  2704
384 383 -675.9999999999999
408 383 -675.9999999999999
359 384 -675.9999999999999
383 384 -675.9999999999999
384 384  2704
385 384 -675.9999999999999
409 384 -675.9999999999999
360 385 -675.9999999999999
384 385 -675.9999999999999
385 385  2704
386 385 -675.9999999999999
410 385 -675.9999999999999
361 386 -675.9999999999999
385 386 -675.9999999999999
386 386  2704
387 386 -675.9999999999999
411 386 -675.9999999999999
362 387 -675.9999999999999
386 387 -675.9999999999999
387 387  2704
388 387 -675.9999999999999
412 387 -675.9999999999999
363 388 -675.9999999999999
387 388 -675.9999999999999
388 388  2704
389 388 -675.9999999999999
413 388 -675.9999999999999
364 389 -675.9999999999999
388 389 -675.9999999999999
389 389  2704
390 389 -675.9999999999999
414 389 -675.9999999999999
365 390 -675.9999999999999
389 390 -675.9999999999999
390 390  2704
391 390 -675.9999999999999
415 390 -675.9999999999999
366 391 -675.9999999999999
390 391 -675.9999999999999
391 391  2704
392 391 -675.9999999999999
416 391 -675.9999999999999
367 392 -675.9999999999999
391 392 -675.9999999999999
392 392  2704
393 392 -675.9999999999999
417 392 -675.9999999999999
368 393 -675.9999999999999
392 393 -675.9999999999999
393 393  2704
394 393 -675.9999999999999
418 393 -675.9999999999999
369 394 -675.9999999999999
393 394 -675.9999999999999
394 394  2704
395 394 -675.9999999999999
419 394 -675.9999999999999
370 395 -675.9999999999999
394 395 -675.9999999999999
395 395  2704
396 395 -675.9999999999999
420 395 -675.9999999999999
371 396 -675.9999999999999
395 396 -675.9999999999999
396 396  2704
397 396 -675.9999999999999
421 396 -675.9999999999999
372 397 -675.9999999999999
396 397 -675.9999999999999
397 397  2704
398 397 -675.9999999999999
422 397 -675.9999999999999
373 398 -675.9999999999999
397 398 -675.9999999999999
398 398  2704
399 398 -675.9999999999999
423 398 -675.9999999999999
374 399 -675.9999999999999
398 399 -675.9999999999999
399 399  2704
400 399 -675.9999999999999
424 399 -675.9999999999999
375 400 -675.9999999999999
399 400 -675.9999999999999
400 400  2704
425 400 -675.9999999999999
376 401 -675.9999999999999
401 401  2704
402 401 -675.9999999999999
426 401 -675.9999999999999
377 402 -675.9999999999999
401 402 -675.9999999999999
402 402  2704
403 402 -675.9999999999999
427 402 -675.9999999999999
378 403 -675.9999999999999
402 403 -675.9999999999999
403 403  2704
404 403 -675.9999999999999
428 403 -675.9999999999999
379 404 -675.9999999999999
403 404 -675.9999999999999
404 404  2704
405 404 -675.9999999999999
429 404 -675.9999999999999
380 405 -675.9999999999999
404 405 -675.9999999999999
405 405  2704
406 405 -675.9999999999999
430 405 -675.9999999999999
381 406 -675.9999999999999
405 406 -675.9999999999999
406 406  2704
407 406 -675.9999999999999
431 406 -675.9999999999999
382 407 -675.9999999999999
406 407 -675.9999999999999
407 407  2704
408 407 -675.9999999999999
432 407 -675.9999999999999
383 408 -675.9999999999999
407 408 -675.9999999999999
408 408  2704
409 408 -675.9999999999999
433 408 -675.9999999999999
384 409 -675.9999999999999
408 409 -675.9999999999999
409 409  2704
410 409 -675.9999999999999
434 409 -675.9999999999999
385 410 -675.9999999999999
409 410 -675.9999999999999
410 410  2704
411 410 -675.9999999999999
435 410 -675.9999999999999
386 411 -675.9999999999999
410 411 -675.9999999999999
411 411  2704
412 411 -675.9999999999999
436 411 -675.9999999999999
387 412 -675.9999999999999
411 412 -675.9999999999999
412 412  2704
413 412 -675.9999999999999
437 412 -675.9999999999999
388 413 -675.9999999999999
412 413 -675.9999999999999
413 413  2704
414 413 -675.9999999999999
438 413 -675.9999999999999
389 414 -675.9999999999999
413 414 -675.9999999999999
414 414  2704
415 414 -675.9999999999999
439 414 -675.9999999999999
390 415 -675.9999999999999
414 415 -675.9999999999999
415 415  2704
416 415 -675.9999999999999
440 415 -675.9999999999999
391 416 -675.9999999999999
415 416 -675.9999999999999
416 416  2704
417 416 -675.9999999999999
441 416 -675.9999999999999
392 417 -675.9999999999999
416 417 -675.9999999999999
417 417  2704
418 417 -675.9999999999999
442 417 -675.9999999999999
393 418 -675.9999999999999
417 418 -675.9999999999999
418 418  2704
419 418 -675.9999999999999
443 418 -675.9999999999999
394 419 -675.9999999999999
418 419 -675.9999999999999
419 419  2704
420 419 -675.9999999999999
444 419 -675.9999999999999
395 420 -675.9999999999999
419 420 -675.9999999999999
420 420  2704
421 420 -675.9999999999999
445 420 -675.9999999999999
396 421 -675.9999999999999
420 421 -675.9999999999999
421 421  2704
422 421 -675.9999999999999
446 421 -675.9999999999999
397 422 -675.9999999999999
421 422 -675.9999999999999
422 422  2704
423 422 -675.9999999999999
447 422 -675.9999999999999
398 423 -675.9999999999999
422 423 -675.9999999999999
423 423  2704
424 423 -675.9999999999999
448 423 -675.9999999999999
399 424 -675.9999999999999
423 424 -675.9999999999999
424 424  2704
425 424 -675.9999999999999
449 424 -675.9999999999999
400 425 -675.9999999999999
424 425 -675.9999999999999
425 425  2704
450 425 -675.9999999999999
401 426 -675.9999999999999
426 426  2704
427 426 -675.9999999999999
451 426 -675.9999999999999
402 427 -675.9999999999999
426 427 -675.9999999999999
427 427  2704
428 427 -675.9999999999999
452 427 -675.9999999999999
403 428 -675.9999999999999
427 428 -675.9999999999999
428 428  2704
429 428 -675.9999999999999
453 428 -675.9999999999999
404 429 -675.9999999999999
428 429 -675.9999999999999
429 429  2704
430 429 -675.9999999999999
454 429 -675.9999999999999
405 430 -675.9999999999999
429 430 -675.9999999999999
430 430  2704
431 430 -675.9999999999999
455 430 -675.9999999999999
406 431 -675.9999999999999
430 431 -675.9999999999999
431 431  2704
432 431 -675.9999999999999
456 431 -675.9999999999999
407 432 -675.9999999999999
431 432 -675.9999999999999
432 432  2704
433 432 -675.9999999999999
457 432 -675.9999999999999
408 433 -675.9999999999999
432 433 -675.9999999999999
433 433  2704
434 433 -675.9999999999999
458 433 -675.9999999999999
409 434 -675.9999999999999
433 434 -675.9999999999999
434 434  2704
435 434 -675.9999999999999
459 434 -675.9999999999999
410 435 -675.9999999999999
434 435 -675.9999999999999
435 435  2704
436 435 -675.9999999999999
460 435 -675.9999999999999
411 436 -675.9999999999999
435 436 -675.9999999999999
436 436  2704
437 436 -675.9999999999999
461 436 -675.9999999999999
412 437 -675.9999999999999
436 437 -675.9999999999999
437 437  2704
438 437 -675.9999999999999
462 437 -675.9999999999999
413 438 -675.9999999999999
437 438 -675.9999999999999
438 438  2704
439 438 -675.9999999999999
463 438 -675.9999999999999
414 439 -675.9999999999999
438 439 -675.9999999999999
439 439  2704
440 439 -675.9999999999999
464 439 -675.9999999999999
415 440 -675.9999999999999
439 440 -675.9999999999999
440 440  2704
441 440 -675.9999999999999
465 440 -675.9999999999999
416 441 -675.9999999999999
440 441 -675.9999999999999
441 441  2704
442 441 -675.9999999999999
466 441 -675.9999999999999
417 442 -675.9999999999999
441 442 -675.9999999999999
442 442  2704
443 442 -675.9999999999999
467 442 -675.9999999999999
418 443 -675.9999999999999
442 443 -675.9999999999999
443 443  2704
444 443 -675.9999999999999
468 443 -675.9999999999999
419 444 -675.9999999999999
443 444 -675.9999999999999
444 444  2704
445 444 -675.9999999999999
469 444 -675.9999999999999
420 445 -675.9999999999999
444 445 -675.9999999999999
445 445  2704
446 445 -675.9999999999999
470 445 -675.9999999999999
421 446 -675.9999999999999
445 446 -675.9999999999999
446 446  2704
447 446 -675.9999999999999
471 446 -675.9999999999999
422 447 -675.9999999999999
446 447 -675.9999999999999
447 447  2704
448 447 -675.9999999999999
472 447 -675.9999999999999
423 448 -675.9999999999999
447 448 -675.9999999999999
448 448  2704
449 448 -675.9999999999999
473 448 -675.9999999999999
424 449 -675.9999999999999
448 449 -675.9999999999999
449 449  2704
450 449 -675.9999999999999
474 449 -675.9999999999999
425 450 -675.9999999999999
449 450 -675.9999999999999
450 450  2704
475 450 -675.9999999999999
426 451 -675.9999999999999
451 451  2704
452 451 -675.9999999999999
476 451 -675.9999999999999
427 452 -675.9999999999999
451 452 -675.9999999999999
452 452  2704
453 452 -675.9999999999999
477 452 -675.9999999999999
428 453 -675.9999999999999
452 453 -675.9999999999999
453 453  2704
454 453 -675.9999999999999
478 453 -675.9999999999999
429 454 -675.9999999999999
453 454 -675.9999999999999
454 454  2704
455 454 -675.9999999999999
479 454 -675.9999999999999
430 455 -675.9999999999999
454 455 -675.9999999999999
455 455  2704
456 455 -675.9999999999999
480 455 -675.9999999999999
431 456 -675.9999999999999
455 456 -675.9999999999999
456 456  2704
457 456 -675.9999999999999
481 456 -675.9999999999999
432 457 -675.9999999999999
456 457 -675.9999999999999
457 457  2704
458 457 -675.9999999999999
482 457 -675.9999999999999
433 458 -675.9999999999999
457 458 -675.9999999999999
458 458  2704
459 458 -675.9999999999999
483 458 -675.9999999999999
434 459 -675.9999999999999
458 459 -675.9999999999999
459 459  2704
460 459 -675.9999999999999
484 459 -675.9999999999999
435 460 -675.9999999999999
459 460 -675.9999999999999
460 460  2704
461 460 -675.9999999999999
485 460 -675.9999999999999
436 461 -675.9999999999999
460 461 -675.9999999999999
461 461  2704
462 461 -675.9999999999999
486 461 -675.9999999999999
437 462 -675.9999999999999
461 462 -675.9999999999999
462 462  2704
463 462 -675.9999999999999
487 462 -675.9999999999999
438 463 -675.9999999999999
462 463 -675.9999999999999
463 463  2704
464 463 -675.9999999999999
488 463 -675.9999999999999
439 464 -675.9999999999999
463 464 -675.9999999999999
464 464  2704
465 464 -675.9999999999999
489 464 -675.9999999999999
440 465 -675.9999999999999
464 465 -675.9999999999999
465 465  2704
466 465 -675.9999999999999
490 465 -675.9999999999999
441 466 -675.9999999999999
465 466 -675.9999999999999
466 466  2704
467 466 -675.9999999999999
491 466 -675.9999999999999
442 467 -675.9999999999999
466 467 -675.9999999999999
467 467  2704
468 467 -675.9999999999999
492 467 -675.9999999999999
443 468 -675.9999999999999
467 468 -675.9999999999999
468 468  2704
469 468 -675.9999999999999
493 468 -675.9999999999999
444 469 -675.9999999999999
468 469 -675.9999999999999
469 469  2704
470 469 -675.9999999999999
494 469 -675.9999999999999
445 470 -675.9999999999999
469 470 -675.9999999999999
470 470  2704
471 470 -675.9999999999999
495 470 -675.9999999999999
446 471 -675.9999999999999
470 471 -675.9999999999999
471 471  2704
472 471 -675.9999999999999
496 471 -675.9999999999999
447 472 -675.9999999999999
471 472 -675.9999999999999
472 472  2704
473 472 -675.9999999999999
497 472 -675.9999999999999
448 473 -675.9999999999999
472 473 -675.9999999999999
473 473  2704
474 473 -675.9999999999999
498 473 -675.9999999999999
449 474 -675.9999999999999
473 474 -675.9999999999999
474 474  2704
475 474 -675.9999999999999
499 474 -675.9999999999999
450 475 -675.9999999999999
474 475 -675.9999999999999
475 475  2704
500 475 -675.9999999999999
451 476 -675.9999999999999
476 476  2704
477 476 -675.9999999999999
501 476 -675.9999999999999
452 477 -675.9999999999999
476 477 -675.9999999999999
477 477  2704
478 477 -675.9999999999999
502 477 -675.9999999999999
453 478 -675.9999999999999
477 478 -675.9999999999999
478 478  2704
479 478 -675.9999999999999
503 478 -675.9999999999999
454 479 -675.9999999999999
478 479 -675.9999999999999
479 479  2704
480 479 -675.9999999999999
504 479 -675.9999999999999
455 480 -675.9999999999999
479 480 -675.9999999999999
480 480  2704
481 480 -675.9999999999999
505 480 -675.9999999999999
456 481 -675.9999999999999
480 481 -675.9999999999999
481 481  2704
482 481 -675.9999999999999
506 481 -675.9999999999999
457 482 -675.9999999999999
481 482 -675.9999999999999
482 482  2704
483 482 -675.9999999999999
507 482 -675.9999999999999
458 483 -675.9999999999999
482 483 -675.9999999999999
483 483  2704
484 483 -675.9999999999999
508 483 -675.9999999999999
459 484 -675.9999999999999
483 484 -675.9999999999999
484 484  2704
485 484 -675.9999999999999
509 484 -675.9999999999999
460 485 -675.9999999999999
484 485 -675.9999999999999
485 485  2704
486 485 -675.9999999999999
510 485 -675.9999999999999
461 486 -675.9999999999999
485 486 -675.9999999999999
486 486  2704
487 486 -675.9999999999999
511 486 -675.9999999999999
462 487 -675.9999999999999
486 487 -675.9999999999999
487 487  2704
488 487 -675.9999999999999
512 487 -675.9999999999999
463 488 -675.9999999999999
487 488 -675.9999999999999
488 488  2704
489 488 -675.9999999999999
513 488 -675.9999999999999
464 489 -675.9999999999999
488 489 -675.9999999999999
489 489  2704
490 489 -675.9999999999999
514 489 -675.9999999999999
465 490 -675.9999999999999
489 490 -675.9999999999999
490 490  2704
491 490 -675.9999999999999
515 490 -675.9999999999999
466 491 -675.9999999999999
490 491 -675.9999999999999
491 491  2704
492 491 -675.9999999999999
516 491 -675.9999999999999
467 492 -675.9999999999999
491 492 -675.9999999999999
492 492  2704
493 492 -675.9999999999999
517 492 -675.9999999999999
468 493 -675.9999999999999
492 493 -675.9999999999999
493 493  2704
494 493 -675.9999999999999
518 493 -675.9999999999999
469 494 -675.9999999999999
493 494 -675.9999999999999
494 494  2704
495 494 -675.9999999999999
519 494 -675.9999999999999
470 495 -675.9999999999999
494 495 -675.9999999999999
495 495  2704
496 495 -675.9999999999999
520 495 -675.9999999999999
471 496 -675.9999999999999
495 496 -675.9999999999999
496 496  2704
497 496 -675.9999999999999
521 496 -675.9999999999999
472 497 -675.9999999999999
496 497 -675.9999999999999
497 497  2704
498 497 -675.9999999999999
522 497 -675.9999999999999
473 498 -675.9999999999999
497 498 -675.9999999999999
498 498  2704
499 498 -675.9999999999999
523 498 -675.9999999999999
474 499 -675.9999999999999
498 499 -675.9999999999999
499 499  2704
500 499 -675.9999999999999
524 499 -675.9999999999999
475 500 -675.9999999999999
499 500 -675.9999999999999
500 500  2704
525 500 -675.9999999999999
476 501 -675.9999999999999
501 501  2704
502 501 -675.9999999999999
526 501 -675.9999999999999
477 502 -675.9999999999999
501 502 -675.9999999999999
502 502  2704
503 502 -675.9999999999999
527 502 -675.9999999999999
478 503 -675.9999999999999
502 503 -675.9999999999999
503 503  2704
504 503 -675.9999999999999
528 503 -675.9999999999999
479 504 -675.9999999999999
503 504 -675.9999999999999
504 504  2704
505 504 -675.9999999999999
529 504 -675.9999999999999
480 505 -675.9999999999999
504 505 -675.9999999999999
505 505  2704
506 505 -675.9999999999999
530 505 -675.9999999999999
481 506 -675.9999999999999
505 506 -675.9999999999999
506 506  2704
507 506 -675.9999999999999
531 506 -675.9999999999999
482 507 -675.9999999999999
506 507 -675.9999999999999
507 507  2704
508 507 -675.9999999999999
532 507 -675.9999999999999
483 508 -675.9999999999999
507 508 -675.9999999999999
508 508  2704
509 508 -675.9999999999999
533 508 -675.9999999999999
484 509 -675.9999999999999
508 509 -675.9999999999999
509 509  2704
510 509 -675.9999999999999
534 509 -675.9999999999999
485 510 -675.9999999999999
509 510 -675.9999999999999
510 510  2704
511 510 -675.9999999999999
535 510 -675.9999999999999
486 511 -675.9999999999999
510 511 -675.9999999999999
511 511  2704
512 511 -675.9999999999999
536 511 -675.9999999999999
487 512 -675.9999999999999
511 512 -675.9999999999999
512 512  2704
513 512 -675.9999999999999
537 512 -675.9999999999999
488 513 -675.9999999999999
512 513 -675.9999999999999
513 513  2704
514 513 -675.9999999999999
538 513 -675.9999999999999
489 514 -675.9999999999999
513 514 -675.9999999999999
514 514  2704
515 514 -675.9999999999999
539 514 -675.9999999999999
490 515 -675.9999999999999
514 515 -675.9999999999999
515 515  2704
516 515 -675.9999999999999
540 515 -675.9999999999999
491 516 -675.9999999999999
515 516 -675.9999999999999
516 516  2704
517 516 -675.9999999999999
541 516 -675.9999999999999
492 517 -675.9999999999999
516 517 -675.9999999999999
517 517  2704
518 517 -675.9999999999999
542 517 -675.9999999999999
493 518 -675.9999999999999
517 518 -675.9999999999999
518 518  2704
519 518 -675.9999999999999
543 518 -675.9999999999999
494 519 -675.9999999999999
518 519 -675.9999999999999
519 519  2704
520 519 -675.9999999999999
544 519 -675.9999999999999
495 520 -675.9999999999999
519 520 -675.9999999999999
520 520  2704
521 520 -675.9999999999999
545 520 -675.9999999999999
496 521 -675.9999999999999
520 521 -675.9999999999999
521 521  2704
522 521 -675.9999999999999
546 521 -675.9999999999999
497 522 -675.9999999999999
521 522 -675.9999999999999
522 522  2704
523 522 -675.9999999999999
547 522 -675.9999999999999
498 523 -675.9999999999999
522 523 -675.9999999999999
523 523  2704
524 523 -675.9999999999999
548 523 -675.9999999999999
499 524 -675.9999999999999
523 524 -675.9999999999999
524 524  2704
525 524 -675.9999999999999
549 524 -675.9999999999999
500 525 -675.9999999999999
524 525 -675.9999999999999
525 525  2704
550 525 -675.9999999999999
501 526 -675.9999999999999
526 526  2704
527 526 -675.9999999999999
551 526 -675.9999999999999
502 527 -675.9999999999999
526 527 -675.9999999999999
527 527  2704
528 527 -675.9999999999999
552 527 -675.9999999999999
503 528 -675.9999999999999
527 528 -675.9999999999999
528 528  2704
529 528 -675.9999999999999
553 528 -675.9999999999999
504 529 -675.9999999999999
528 529 -675.9999999999999
529 529  2704
530 529 -675.9999999999999
554 529 -675.9999999999999
505 530 -675.9999999999999
529 530 -675.9999999999999
530 530  2704
531 530 -675.9999999999999
555 530 -675.9999999999999
506 531 -675.9999999999999
530 531 -675.9999999999999
531 531  2704
532 531 -675.9999999999999
556 531 -675.9999999999999
507 532 -675.9999999999999
531 532 -675.9999999999999
532 532  2704
533 532 -675.9999999999999
557 532 -675.9999999999999
508 533 -675.9999999999999
532 533 -675.9999999999999
533 533  2704
534 533 -675.9999999999999
558 533 -675.9999999999999
509 534 -675.9999999999999
533 534 -675.9999999999999
534 534  2704
535 534 -675.9999999999999
559 534 -675.9999999999999
510 535 -675.9999999999999
534 535 -675.9999999999999
535 535  2704
536 535 -675.9999999999999
560 535 -675.9999999999999
511 536 -675.9999999999999
535 536 -675.9999999999999
536 536  2704
537 536 -675.9999999999999
561 536 -675.9999999999999
512 537 -675.9999999999999
536 537 -675.9999999999999
537 537  2704
538 537 -675.9999999999999
562 537 -675.9999999999999
513 538 -675.9999999999999
537 538 -675.9999999999999
538 538  2704
539 538 -675.9999999999999
563 538 -675.9999999999999
514 539 -675.9999999999999
538 539 -675.9999999999999
539 539  2704
540 539 -675.9999999999999
564 539 -675.9999999999999
515 540 -675.9999999999999
539 540 -675.9999999999999
540 540  2704
541 540 -675.9999999999999
565 540 -675.9999999999999
516 541 -675.9999999999999
540 541 -675.9999999999999
541 541  2704
542 541 -675.9999999999999
566 541 -675.9999999999999
517 542 -675.9999999999999
541 542 -675.9999999999999
542 542  2704
543 542 -675.9999999999999
567 542 -675.9999999999999
518 543 -675.9999999999999
542 543 -675.9999999999999
543 543  2704
544 543 -675.9999999999999
568 543 -675.9999999999999
519 544 -675.9999999999999
543 544 -675.9999999999999
544 544  2704
545 544 -675.9999999999999
569 544 -675.9999999999999
520 545 -675.9999999999999
544 545 -675.9999999999999
545 545  2704
546 545 -675.9999999999999
570 545 -675.9999999999999
521 546 -675.9999999999999
545 546 -675.9999999999999
546 546  2704
547 546 -675.9999999999999
571 546 -675.9999999999999
522 547 -675.9999999999999
546 547 -675.9999999999999
547 547  2704
548 547 -675.9999999999999
572 547 -675.9999999999999
523 548 -675.9999999999999
547 548 -675.9999999999999
548 548  2704
549 548 -675.9999999999999
573 548 -675.9999999999999
524 549 -675.9999999999999
548 549 -675.9999999999999
549 549  2704
550 549 -675.9999999999999
574 549 -675.9999999999999
525 550 -675.9999999999999
549 550 -675.9999999999999
550 550  2704
575 550 -675.9999999999999
526 551 -675.9999999999999
551 551  2704
552 551 -675.9999999999999
576 551 -675.9999999999999
527 552 -675.9999999999999
551 552 -675.9999999999999
552 552  2704
553 552 -675.9999999999999
577 552 -675.9999999999999
528 553 -675.9999999999999
552 553 -675.9999999999999
553 553  2704
554 553 -675.9999999999999
578 553 -675.9999999999999
529 554 -675.9999999999999
553 554 -675.9999999999999
554 554  2704
555 554 -675.9999999999999
579 554 -675.9999999999999
530 555 -675.9999999999999
554 555 -675.9999999999999
555 555  2704
556 555 -675.9999999999999
580 555 -675.9999999999999
531 556 -675.9999999999999
555 556 -675.9999999999999
556 556  2704
557 556 -675.9999999999999
581 556 -675.9999999999999
532 557 -675.9999999999999
556 557 -675.9999999999999
557 557  2704
558 557 -675.9999999999999
582 557 -675.9999999999999
533 558 -675.9999999999999
557 558 -675.9999999999999
558 558  2704
559 558 -675.9999999999999
583 558 -675.9999999999999
534 559 -675.9999999999999
558 559 -675.9999999999999
559 559  2704
560 559 -675.9999999999999
584 559 -675.9999999999999
535 560 -675.9999999999999
559 560 -675.9999999999999
560 560  2704
561 560 -675.9999999999999
585 560 -675.9999999999999
536 561 -675.9999999999999
560 561 -675.9999999999999
561 561  2704
562 561 -675.9999999999999
586 561 -675.9999999999999
537 562 -675.9999999999999
561 562 -675.9999999999999
562 562  2704
563 562 -675.9999999999999
587 562 -675.9999999999999
538 563 -675.9999999999999
562 563 -675.9999999999999
563 563  2704
564 563 -675.9999999999999
588 563 -675.9999999999999
539 564 -675.9999999999999
563 564 -675.9999999999999
564 564  2704
565 564 -675.9999999999999
589 564 -675.9999999999999
540 565 -675.9999999999999
564 565 -675.9999999999999
565 565  2704
566 565 -675.9999999999999
590 565 -675.9999999999999
541 566 -675.9999999999999
565 566 -675.9999999999999
566 566  2704
567 566 -675.9999999999999
591 566 -675.9999999999999
542 567 -675.9999999999999
566 567 -675.9999999999999
567 567  2704
568 567 -675.9999999999999
592 567 -675.9999999999999
543 568 -675.9999999999999
567 568 -675.9999999999999
568 568  2704
569 568 -675.9999999999999
593 568 -675.9999999999999
544 569 -675.9999999999999
568 569 -675.9999999999999
569 569  2704
570 569 -675.9999999999999
594 569 -675.9999999999999
545 570 -675.9999999999999
569 570 -675.9999999999999
570 570  2704
571 570 -675.9999999999999
595 570 -675.9999999999999
546 571 -675.9999999999999
570 571 -675.9999999999999
571 571  2704
572 571 -675.9999999999999
596 571 -675.9999999999999
547 572 -675.9999999999999
571 572 -675.9999999999999
572 572  2704
573 572 -675.9999999999999
597 572 -675.9999999999999
548 573 -675.9999999999999
572 573 -675.9999999999999
573 573  2704
574 573 -675.9999999999999
598 573 -675.9999999999999
549 574 -675.9999999999999
573 574 -675.9999999999999
574 574  2704
575 574 -675.9999999999999
599 574 -675.9999999999999
550 575 -675.9999999999999
574 575 -675.9999999999999
575 575  2704
600 575 -675.9999999999999
551 576 -675.9999999999999
576 576  2704
577 576 -675.9999999999999
601 576 -675.9999999999999
552 577 -675.9999999999999
576 577 -675.9999999999999
577 577  2704
578 577 -675.9999999999999
602 577 -675.9999999999999
553 578 -675.9999999999999
577 578 -675.9999999999999
578 578  2704
579 578 -675.9999999999999
603 578 -675.9999999999999
554 579 -675.9999999999999
578 579 -675.9999999999999
579 579  2704
580 579 -675.9999999999999
604 579 -675.9999999999999
555 580 -675.9999999999999
579 580 -675.9999999999999
580 580  2704
581 580 -675.9999999999999
605 580 -675.9999999999999
556 581 -675.9999999999999
580 581 -675.9999999999999
581 581  2704
582 581 -675.9999999999999
606 581 -675.9999999999999
557 582 -675.9999999999999
581 582 -675.9999999999999
582 582  2704
583 582 -675.9999999999999
607 582 -675.9999999999999
558 583 -675.9999999999999
582 583 -675.9999999999999
583 583  2704
584 583 -675.9999999999999
608 583 -675.9999999999999
559 584 -675.9999999999999
583 584 -675.9999999999999
584 584  2704
585 584 -675.9999999999999
609 584 -675.9999999999999
560 585 -675.9999999999999
584 585 -675.9999999999999
585 585  2704
586 585 -675.9999999999999
610 585 -675.9999999999999
561 586 -675.9999999999999
585 586 -675.9999999999999
586 586  2704
587 586 -675.9999999999999
611 586 -675.9999999999999
562 587 -675.9999999999999
586 587 -675.9999999999999
587 587  2704
588 587 -675.9999999999999
612 587 -675.9999999999999
563 588 -675.9999999999999
587 588 -675.9999999999999
588 588  2704
589 588 -675.9999999999999
613 588 -675.9999999999999
564 589 -675.9999999999999
588 589 -675.9999999999999
589 589  2704
590 589 -675.9999999999999
614 589 -675.9999999999999
565 590 -675.9999999999999
589 590 -675.9999999999999
590 590  2704
591 590 -675.9999999999999
615 590 -675.9999999999999
566 591 -675.9999999999999
590 591 -675.9999999999999
591 591  2704
592 591 -675.9999999999999
616 591 -675.9999999999999
567 592 -675.9999999999999
591 592 -675.9999999999999
592 592  2704
593 592 -675.9999999999999
617 592 -675.9999999999999
568 593 -675.9999999999999
592 593 -675.9999999999999
593 593  2704
594 593 -675.9999999999999
618 593 -675.9999999999999
569 594 -675.9999999999999
593 594 -675.9999999999999
594 594  2704
595 594 -675.9999999999999
619 594 -675.9999999999999
570 595 -675.9999999999999
594 595 -675.9999999999999
595 595  2704
596 595 -675.9999999999999
620 595 -675.9999999999999
571 596 -675.9999999999999
595 596 -675.9999999999999
596 596  2704
597 596 -675.9999999999999
621 596 -675.9999999999999
572 597 -675.9999999999999
596 597 -675.9999999999999
597 597  2704
598 597 -675.9999999999999
622 597 -675.9999999999999
573 598 -675.9999999999999
597 598 -675.9999999999999
598 598  2704
599 598 -675.9999999999999
623 598 -675.9999999999999
574 599 -675.9999999999999
598 599 -675.9999999999999
599 599  2704
600 599 -675.9999999999999
624 599 -675.9999999999999
575 600 -675.9999999999999
599 600 -675.9999999999999
600 600  2704
625 600 -675.9999999999999
576 601 -675.9999999999999
601 601  2704
602 601 -675.9999999999999
577 602 -675.9999999999999
601 602 -675.9999999999999
602 602  2704
603 602 -675.9999999999999
578 603 -675.9999999999999
602 603 -675.9999999999999
603 603  2704
604 603 -675.9999999999999
579 604 -675.9999999999999
603 604 -675.9999999999999
604 604  2704
605 604 -675.9999999999999
580 605 -675.9999999999999
604 605 -675.9999999999999
605 605  2704
606 605 -675.9999999999999
581 606 -675.9999999999999
605 606 -675.9999999999999
606 606  2704
607 606 -675.9999999999999
582 607 -675.9999999999999
606 607 -675.9999999999999
607 607  2704
608 607 -675.9999999999999
583 608 -675.9999999999999
607 608 -675.9999999999999
608 608  2704
609 608 -675.9999999999999
584 609 -675.9999999999999
608 609 -675.9999999999999
609 609  2704
610 609 -675.9999999999999
585 610 -675.9999999999999
609 610 -675.9999999999999
610 610  2704
611 610 -675.9999999999999
586 611 -675.9999999999999
610 611 -675.9999999999999
611 611  2704
612 611 -675.9999999999999
587 612 -675.9999999999999
611 612 -675.9999999999999
612 612  2704
613 612 -675.9999999999999
588 613 -675.9999999999999
612 613 -675.9999999999999
613 613  2704
614 613 -675.9999999999999
589 614 -675.9999999999999
613 614 -675.9999999999999
614 614  2704
615 614 -675.9999999999999
590 615 -675.9999999999999
614 615 -675.9999999999999
615 615  2704
616 615 -675.9999999999999
591 616 -675.9999999999999
615 616 -675.9999999999999
616 616  2704
617 616 -675.9999999999999
592 617 -675.9999999999999
616 617 -675.9999999999999
617 617  2704
618 617 -675.9999999999999
593 618 -675.9999999999999
617 618 -675.9999999999999
618 618  2704
619 618 -675.9999999999999
594 619 -675.9999999999999
618 619 -675.9999999999999
619 619  2704
620 619 -675.9999999999999
595 620 -675.9999999999999
619 620 -675.9999999999999
620 620  2704
621 620 -675.9999999999999
596 621 -675.9999999999999
620 621 -675.9999999999999
621 621  2704
622 621 -675.9999999999999
597 622 -675.9999999999999
621 622 -675.9999999999999
622 622  2704
623 622 -675.9999999999999
598 623 -675.9999999999999
622 623 -675.9999999999999
623 623  2704
624 623 -675.9999999999999
599 624 -675.9999999999999
623 624 -675.9999999999999
624 624  2704
625 624 -675.9999999999999
600 625 -675.9999999999999
624 625 -675.9999999999999
625 625  2704
